Last column: dimension of arrays. Other columns: x1 y1 ... xn yn, where n is ordered number of line.
109.425	44.475	423.000
109.425	44.475	0.000
109.625	44.475	0.000
109.450	44.475	0.000
109.450	44.475	0.000
109.450	44.475	0.000
109.550	44.475	0.000
109.475	44.525	0.000
109.475	44.525	0.000
109.475	44.525	0.000
109.600	44.450	0.000
109.450	44.450	0.000
109.450	44.450	0.000
109.450	44.450	0.000
109.450	44.525	0.000
109.450	44.525	0.000
109.575	44.450	0.000
109.450	44.450	0.000
109.575	44.450	0.000
109.575	44.450	0.000
109.575	44.450	0.000
109.575	44.450	0.000
109.450	44.525	0.000
109.625	44.475	0.000
109.625	44.525	0.000
109.625	44.525	0.000
109.525	44.525	0.000
109.525	44.525	0.000
109.425	44.525	0.000
109.425	44.525	0.000
109.450	44.525	0.000
109.450	44.525	0.000
109.500	44.475	0.000
109.500	44.475	0.000
109.500	44.475	0.000
109.575	44.475	0.000
109.450	44.525	0.000
109.450	44.525	0.000
109.625	44.475	0.000
109.425	44.475	0.000
109.600	44.550	0.000
109.425	44.450	0.000
109.600	44.450	0.000
109.450	44.450	0.000
109.625	44.525	0.000
109.525	44.525	0.000
109.525	44.525	0.000
109.475	44.525	0.000
109.475	44.525	0.000
109.475	44.475	0.000
109.475	44.475	0.000
109.475	44.475	0.000
109.600	44.475	0.000
109.500	44.475	0.000
109.500	44.475	0.000
109.500	44.475	0.000
109.575	44.475	0.000
109.450	44.525	0.000
109.450	44.525	0.000
109.525	44.525	0.000
109.525	44.525	0.000
109.600	44.450	0.000
109.425	44.450	0.000
109.625	44.450	0.000
109.625	44.500	0.000
109.625	44.500	0.000
109.625	44.450	0.000
109.625	44.450	0.000
109.425	44.450	0.000
109.425	44.525	0.000
109.425	44.525	0.000
109.425	44.525	0.000
109.500	44.525	0.000
109.500	44.525	0.000
109.450	44.475	0.000
109.450	44.475	0.000
109.450	44.475	0.000
109.625	44.475	0.000
109.450	44.475	0.000
109.450	44.475	0.000
109.450	44.475	0.000
109.550	44.475	0.000
109.425	44.475	0.000
109.425	44.475	0.000
109.425	44.475	0.000
109.575	44.475	0.000
109.425	44.475	0.000
109.425	44.475	0.000
109.425	44.475	0.000
109.475	44.475	0.000
109.525	44.475	0.000
109.525	44.475	0.000
109.525	44.475	0.000
109.425	44.525	0.000
109.425	44.525	0.000
109.575	44.475	0.000
109.575	44.475	0.000
109.425	44.475	0.000
109.425	44.475	0.000
109.425	44.500	0.000
109.425	44.500	0.000
109.525	44.500	0.000
109.575	44.450	0.000
109.575	44.450	0.000
109.575	44.450	0.000
109.575	44.450	0.000
109.550	44.450	0.000
109.475	44.500	0.000
109.475	44.500	0.000
109.475	44.500	0.000
109.600	44.450	0.000
109.425	44.450	0.000
109.425	44.450	0.000
109.425	44.450	0.000
109.425	44.525	0.000
109.425	44.525	0.000
109.575	44.475	0.000
109.450	44.475	0.000
109.575	44.475	0.000
109.625	44.475	0.000
109.625	44.475	0.000
109.625	44.475	0.000
109.450	44.525	0.000
109.600	44.475	0.000
109.600	44.525	0.000
109.600	44.525	0.000
109.525	44.525	0.000
109.525	44.525	0.000
109.400	44.525	0.000
109.400	44.525	0.000
109.475	44.525	0.000
109.475	44.525	0.000
109.475	44.475	0.000
109.475	44.475	0.000
109.475	44.475	0.000
109.550	44.475	0.000
109.450	44.525	0.000
109.450	44.525	0.000
109.600	44.450	0.000
109.600	44.500	0.000
109.600	44.500	0.000
109.600	44.450	0.000
109.600	44.450	0.000
109.400	44.450	0.000
109.450	44.525	0.000
109.450	44.525	0.000
109.450	44.525	0.000
109.500	44.525	0.000
109.500	44.525	0.000
109.425	44.475	0.000
109.425	44.475	0.000
109.425	44.475	0.000
109.600	44.475	0.000
109.425	44.475	0.000
109.425	44.475	0.000
109.425	44.475	0.000
109.525	44.475	0.000
109.475	44.500	0.000
109.475	44.500	0.000
109.475	44.500	0.000
109.400	44.500	0.000
109.400	44.500	0.000
109.600	44.450	0.000
109.600	44.525	0.000
109.425	44.525	0.000
109.425	44.475	0.000
109.425	44.475	0.000
109.425	44.475	0.000
109.425	44.525	0.000
109.425	44.525	0.000
109.550	44.475	0.000
109.550	44.475	0.000
109.425	44.475	0.000
109.425	44.475	0.000
109.425	44.525	0.000
109.425	44.525	0.000
109.550	44.475	0.000
109.500	44.475	0.000
109.500	44.475	0.000
109.500	44.475	0.000
109.500	44.475	0.000
109.500	44.475	0.000
109.500	44.475	0.000
109.500	44.475	0.000
109.500	44.475	0.000
109.575	44.475	0.000
109.450	44.525	0.000
109.450	44.525	0.000
109.600	44.475	0.000
109.600	44.475	0.000
109.600	44.475	0.000
109.600	44.475	0.000
109.600	44.475	0.000
109.400	44.475	0.000
109.400	44.550	0.000
109.400	44.550	0.000
109.400	44.550	0.000
109.500	44.550	0.000
109.500	44.550	0.000
109.425	44.475	0.000
109.425	44.475	0.000
109.425	44.475	0.000
109.600	44.475	0.000
109.425	44.475	0.000
109.425	44.475	0.000
109.425	44.475	0.000
109.525	44.475	0.000
109.450	44.525	0.000
109.450	44.525	0.000
109.450	44.525	0.000
109.375	44.675	0.000
109.300	45.375	0.000
109.300	45.375	0.000
109.225	46.000	0.000
109.350	46.225	0.000
109.175	46.625	0.000
109.175	46.900	0.000
109.225	47.500	0.000
109.100	48.050	0.000
109.075	48.725	0.000
109.200	49.100	0.000
109.025	49.925	0.000
109.075	50.725	0.000
109.275	51.200	0.000
109.375	52.050	0.000
109.325	53.150	0.000
109.525	53.750	0.000
109.675	54.800	0.000
109.525	55.975	0.000
109.575	57.425	0.000
109.625	58.500	0.000
109.825	59.150	0.000
109.975	60.450	0.000
109.775	61.150	0.000
109.900	63.100	0.000
110.100	64.075	0.000
110.200	65.675	0.000
110.025	66.525	0.000
110.025	68.925	0.000
110.025	70.175	0.000
110.150	71.200	0.000
109.950	71.975	0.000
109.850	74.700	0.000
109.850	75.975	0.000
109.925	77.300	0.000
110.225	78.675	0.000
110.050	80.575	0.000
110.125	81.875	0.000
110.325	83.125	0.000
110.275	85.050	0.000
110.425	86.400	0.000
110.425	88.400	0.000
110.625	89.825	0.000
110.675	91.825	0.000
110.800	93.500	0.000
110.825	94.850	0.000
110.975	96.700	0.000
110.975	98.700	0.000
110.975	98.700	0.000
111.050	102.050	0.000
111.075	104.250	0.000
111.150	105.750	0.000
111.150	106.575	0.000
111.275	109.250	0.000
111.400	111.925	0.000
111.550	113.450	0.000
111.550	114.950	0.000
111.550	117.450	0.000
111.625	119.025	0.000
111.575	121.475	0.000
111.675	123.025	0.000
111.475	125.650	0.000
111.475	127.225	0.000
111.400	129.650	0.000
111.450	131.475	0.000
111.450	133.325	0.000
111.550	135.750	0.000
111.625	137.325	0.000
111.625	139.500	0.000
111.475	157.725	0.000
111.050	158.625	0.000
111.050	160.500	0.000
111.000	161.975	0.000
110.950	162.525	0.000
109.975	179.600	0.000
109.975	180.250	0.000
109.975	181.400	0.000
110.075	183.500	0.000
110.075	185.050	0.000
110.075	185.050	0.000
109.825	188.550	0.000
109.625	190.075	0.000
109.825	190.925	0.000
109.450	191.925	0.000
109.125	195.100	0.000
109.275	195.950	0.000
109.050	197.725	0.000
108.900	198.475	0.000
108.750	201.225	0.000
108.700	202.525	0.000
108.450	204.525	0.000
108.650	204.925	0.000
108.050	207.450	0.000
107.925	209.050	0.000
107.775	210.775	0.000
107.825	211.600	0.000
107.550	213.450	0.000
107.550	215.375	0.000
107.650	216.125	0.000
107.650	217.775	0.000
107.650	219.675	0.000
107.700	220.900	0.000
107.700	222.200	0.000
107.850	223.800	0.000
107.850	223.800	0.000
107.900	226.675	0.000
107.900	227.875	0.000
107.950	229.325	0.000
107.950	229.325	0.000
108.050	231.575	0.000
108.050	232.675	0.000
108.100	234.100	0.000
108.375	234.650	0.000
108.275	236.600	0.000
108.275	237.700	0.000
108.325	238.950	0.000
108.550	239.525	0.000
108.550	240.750	0.000
108.425	241.925	0.000
108.475	243.100	0.000
108.775	243.525	0.000
108.500	244.950	0.000
108.500	245.975	0.000
108.550	246.975	0.000
108.875	247.400	0.000
108.600	248.925	0.000
108.650	249.750	0.000
108.925	250.200	0.000
108.925	251.175	0.000
108.875	252.325	0.000
108.975	252.800	0.000
108.925	253.625	0.000
108.925	254.400	0.000
108.925	254.400	0.000
108.900	255.675	0.000
108.950	256.450	0.000
109.175	256.825	0.000
109.000	257.100	0.000
109.100	258.275	0.000
109.350	258.575	0.000
109.200	259.125	0.000
109.150	259.200	0.000
109.100	259.950	0.000
109.350	260.175	0.000
109.275	260.550	0.000
109.225	260.550	0.000
109.225	260.550	0.000
109.225	261.300	0.000
109.225	261.325	0.000
109.500	261.250	0.000
109.200	261.325	0.000
109.475	261.275	0.000
109.450	261.325	0.000
109.150	261.325	0.000
109.150	261.325	0.000
109.150	261.325	0.000
109.150	261.325	0.000
109.150	261.250	0.000
109.150	261.250	0.000
109.150	261.250	0.000
109.150	261.325	0.000
109.150	261.325	0.000
109.150	261.325	0.000
109.200	261.325	0.000
109.500	261.325	0.000
109.400	261.325	0.000
109.275	261.200	0.000
109.600	261.325	0.000
109.300	261.350	0.000
109.525	261.300	0.000
109.250	261.250	0.000
109.200	261.350	0.000
109.525	261.350	0.000
109.225	261.350	0.000
109.450	261.350	0.000
109.225	261.350	0.000
109.225	261.350	0.000
109.425	261.350	0.000
109.200	261.350	0.000
109.200	261.350	0.000
109.250	261.275	0.000
109.225	261.275	0.000
109.325	261.325	0.000
109.325	261.325	0.000
109.425	261.325	0.000
109.425	261.325	0.000
109.375	261.325	0.000
109.375	261.325	0.000
109.375	261.325	0.000
109.200	261.325	0.000
109.400	261.325	0.000
109.275	261.325	0.000
109.175	261.325	0.000
109.175	261.325	0.000
109.175	261.325	0.000
109.175	261.325	0.000
109.175	261.325	0.000
109.375	261.325	0.000
109.250	261.325	0.000
109.250	261.325	0.000
109.250	261.325	0.000
109.375	261.325	0.000
109.275	261.325	0.000
109.275	261.325	0.000
109.275	261.325	0.000
109.275	261.325	0.000
109.275	261.325	0.000
109.275	261.325	0.000
109.275	261.325	0.000
109.275	261.325	0.000
109.350	261.325	0.000
109.250	261.325	0.000
109.250	261.325	0.000
