Last column: dimension of arrays. Other columns: x1 y1 ... xn yn, where n is ordered number of line.
110.100	44.450	356.000
110.150	44.450	0.000
110.150	44.450	0.000
110.150	44.450	0.000
110.150	44.450	0.000
110.150	44.400	0.000
110.325	44.400	0.000
110.325	44.400	0.000
110.125	44.400	0.000
110.125	44.400	0.000
110.125	44.400	0.000
110.175	44.450	0.000
110.175	44.450	0.000
110.125	44.375	0.000
110.125	44.375	0.000
110.250	44.450	0.000
110.250	44.450	0.000
110.150	44.450	0.000
110.150	44.450	0.000
110.150	44.375	0.000
110.150	44.375	0.000
110.325	44.375	0.000
110.125	44.450	0.000
110.125	44.400	0.000
110.125	44.400	0.000
110.325	44.400	0.000
110.125	44.475	0.000
110.125	44.475	0.000
110.125	44.475	0.000
110.125	44.475	0.000
110.150	44.475	0.000
110.150	44.475	0.000
110.150	44.475	0.000
110.150	44.475	0.000
110.150	44.475	0.000
110.325	44.400	0.000
110.325	44.400	0.000
110.150	44.450	0.000
110.150	44.400	0.000
110.150	44.400	0.000
110.150	44.475	0.000
110.150	44.475	0.000
110.150	44.400	0.000
110.150	44.400	0.000
110.250	44.475	0.000
110.250	44.475	0.000
110.200	44.425	0.000
110.200	44.400	0.000
110.200	44.400	0.000
110.200	44.400	0.000
110.200	44.400	0.000
110.150	44.475	0.000
110.150	44.475	0.000
110.150	44.475	0.000
110.150	44.475	0.000
110.150	44.475	0.000
110.150	44.475	0.000
110.150	44.475	0.000
110.150	44.475	0.000
110.150	44.400	0.000
110.325	44.400	0.000
110.375	44.400	0.000
110.375	44.400	0.000
110.250	44.400	0.000
110.250	44.400	0.000
110.150	44.450	0.000
110.150	44.450	0.000
110.150	44.400	0.000
110.150	44.400	0.000
110.225	44.475	0.000
110.225	44.475	0.000
110.275	44.400	0.000
110.175	44.450	0.000
110.175	44.450	0.000
110.175	44.450	0.000
110.175	44.450	0.000
110.175	44.450	0.000
110.175	44.450	0.000
110.175	44.450	0.000
110.175	44.450	0.000
110.125	44.450	0.000
110.125	44.450	0.000
110.125	44.450	0.000
110.125	44.450	0.000
110.125	44.400	0.000
110.125	44.400	0.000
110.250	44.475	0.000
110.100	44.475	0.000
110.100	44.475	0.000
110.100	44.475	0.000
110.100	44.475	0.000
110.100	44.475	0.000
110.100	44.400	0.000
110.200	44.400	0.000
110.200	44.400	0.000
110.200	44.400	0.000
110.275	44.450	0.000
110.100	44.450	0.000
110.100	44.450	0.000
110.100	44.450	0.000
110.175	44.500	0.000
110.300	44.400	0.000
110.075	44.500	0.000
110.075	44.500	0.000
110.175	44.500	0.000
110.075	44.500	0.000
110.075	44.500	0.000
110.075	44.500	0.000
110.075	44.500	0.000
110.075	44.425	0.000
110.075	44.425	0.000
110.075	44.525	0.000
110.075	44.525	0.000
110.250	44.625	0.000
109.900	44.800	0.000
110.200	45.000	0.000
109.850	45.350	0.000
109.925	45.825	0.000
110.025	46.250	0.000
109.775	46.400	0.000
109.925	47.225	0.000
109.950	47.925	0.000
109.675	48.350	0.000
109.675	49.175	0.000
109.850	50.200	0.000
109.625	50.750	0.000
109.625	51.900	0.000
109.725	53.025	0.000
109.725	53.025	0.000
109.325	55.050	0.000
109.200	56.475	0.000
109.350	58.200	0.000
109.050	58.700	0.000
109.250	61.275	0.000
109.100	62.650	0.000
108.950	64.100	0.000
108.900	64.925	0.000
109.150	67.825	0.000
109.050	69.325	0.000
108.950	71.375	0.000
108.800	71.975	0.000
108.950	74.900	0.000
108.475	77.000	0.000
108.800	78.575	0.000
108.600	80.225	0.000
108.425	82.675	0.000
108.625	84.325	0.000
108.475	86.625	0.000
108.650	88.300	0.000
108.725	90.150	0.000
108.650	92.025	0.000
108.925	94.350	0.000
108.975	96.825	0.000
108.975	98.950	0.000
109.050	101.025	0.000
108.850	103.600	0.000
109.000	105.525	0.000
108.950	106.300	0.000
109.300	110.600	0.000
109.600	112.600	0.000
109.425	115.350	0.000
109.425	115.350	0.000
109.800	119.325	0.000
109.575	122.600	0.000
109.725	124.650	0.000
109.375	125.500	0.000
109.475	129.525	0.000
109.850	132.225	0.000
109.400	135.175	0.000
110.025	160.500	0.000
110.775	162.025	0.000
111.025	164.200	0.000
110.625	165.925	0.000
111.225	178.675	0.000
111.600	179.900	0.000
111.600	181.675	0.000
111.750	183.250	0.000
111.575	184.875	0.000
112.125	188.050	0.000
112.250	189.525	0.000
112.400	192.000	0.000
112.325	192.725	0.000
112.575	195.675	0.000
112.450	196.500	0.000
112.525	199.100	0.000
112.525	200.350	0.000
112.625	202.475	0.000
112.600	204.025	0.000
112.450	205.475	0.000
112.575	207.250	0.000
112.675	221.875	0.000
112.600	222.175	0.000
112.525	223.600	0.000
112.800	225.250	0.000
112.575	225.750	0.000
112.625	226.900	0.000
112.675	228.075	0.000
112.875	229.425	0.000
112.750	230.025	0.000
112.750	231.200	0.000
112.900	232.400	0.000
112.725	233.025	0.000
112.700	233.975	0.000
112.775	235.225	0.000
112.650	235.925	0.000
112.700	236.975	0.000
112.825	237.950	0.000
112.825	237.950	0.000
112.650	239.075	0.000
112.725	240.050	0.000
112.875	241.025	0.000
112.875	241.025	0.000
112.675	242.375	0.000
112.675	243.325	0.000
112.400	243.675	0.000
112.625	244.175	0.000
112.300	245.375	0.000
112.200	246.100	0.000
111.900	246.300	0.000
112.225	246.850	0.000
111.800	247.625	0.000
111.775	248.400	0.000
112.025	249.300	0.000
111.825	249.700	0.000
111.750	250.575	0.000
111.975	251.500	0.000
111.675	251.950	0.000
111.550	252.725	0.000
111.675	253.850	0.000
111.350	254.250	0.000
111.225	255.000	0.000
111.225	255.950	0.000
111.225	255.950	0.000
111.125	257.175	0.000
111.350	258.075	0.000
111.475	258.850	0.000
111.475	258.850	0.000
111.550	259.950	0.000
111.550	260.525	0.000
111.275	260.575	0.000
111.475	260.925	0.000
111.200	261.125	0.000
111.150	261.250	0.000
111.125	261.325	0.000
111.125	261.475	0.000
111.125	261.475	0.000
111.175	261.475	0.000
111.175	261.375	0.000
111.175	261.375	0.000
111.175	261.375	0.000
111.175	261.375	0.000
111.225	261.375	0.000
111.300	261.375	0.000
111.300	261.375	0.000
111.375	261.375	0.000
111.125	261.375	0.000
111.125	261.300	0.000
111.125	261.300	0.000
111.125	261.300	0.000
111.125	261.400	0.000
111.125	261.400	0.000
111.125	261.400	0.000
111.125	261.400	0.000
111.125	261.450	0.000
111.250	261.450	0.000
111.250	261.450	0.000
111.125	261.350	0.000
111.125	261.350	0.000
111.125	261.350	0.000
111.125	261.450	0.000
111.125	261.450	0.000
111.125	261.450	0.000
111.125	261.450	0.000
111.125	261.450	0.000
111.125	261.450	0.000
111.300	261.450	0.000
111.100	261.400	0.000
111.100	261.400	0.000
111.100	261.400	0.000
111.250	261.425	0.000
111.100	261.425	0.000
111.100	261.425	0.000
111.100	261.425	0.000
111.100	261.425	0.000
111.100	261.425	0.000
111.100	261.425	0.000
111.100	261.425	0.000
111.100	261.425	0.000
111.100	261.425	0.000
111.200	261.425	0.000
111.200	261.425	0.000
111.100	261.425	0.000
111.100	261.425	0.000
111.100	261.425	0.000
111.100	261.425	0.000
111.100	261.425	0.000
111.225	261.425	0.000
111.100	261.425	0.000
111.100	261.425	0.000
111.100	261.425	0.000
111.100	261.425	0.000
111.175	261.425	0.000
111.175	261.425	0.000
111.175	261.425	0.000
111.225	261.425	0.000
111.225	261.425	0.000
111.100	261.425	0.000
111.100	261.425	0.000
111.100	261.425	0.000
111.100	261.425	0.000
111.225	261.425	0.000
111.225	261.425	0.000
111.100	261.425	0.000
111.100	261.425	0.000
111.100	261.425	0.000
111.100	261.425	0.000
111.100	261.425	0.000
111.100	261.425	0.000
111.100	261.425	0.000
111.100	261.425	0.000
111.100	261.425	0.000
111.225	261.425	0.000
111.100	261.425	0.000
111.100	261.425	0.000
111.100	261.425	0.000
111.200	261.425	0.000
111.200	261.425	0.000
111.100	261.425	0.000
111.100	261.425	0.000
111.100	261.425	0.000
111.100	261.425	0.000
111.225	261.425	0.000
111.225	261.425	0.000
111.125	261.425	0.000
111.125	261.425	0.000
111.125	261.425	0.000
111.125	261.425	0.000
111.125	261.425	0.000
111.125	261.425	0.000
111.125	261.425	0.000
111.125	261.425	0.000
111.125	261.425	0.000
111.125	261.425	0.000
111.125	261.425	0.000
111.175	261.425	0.000
111.100	261.450	0.000
111.100	261.450	0.000
111.100	261.450	0.000
111.100	261.450	0.000
111.100	261.450	0.000
111.175	261.450	0.000
111.175	261.450	0.000
111.125	261.450	0.000
111.125	261.450	0.000
111.225	261.450	0.000
111.100	261.450	0.000
